{
  "component": {
    "flow": true,
    "phrasing": true,
    "transparent": true,
    "component": "is",
    "requiredAttributes": ["is"]
  },

  "keep-alive": {
    "flow": true,
    "phrasing": true,
    "transparent": true
  },

  "portal": {
    "deprecated": {
      "source": "vue",
      "message": "the <portal> element has been renamed to <teleport>",
      "documentation": "The `<portal>` element has been renamed to `<teleport>`"
    }
  },

  "router-link": {
    "flow": true,
    "phrasing": true,
    "transparent": true
  },

  "router-view": {
    "flow": true,
    "slots": ["default"]
  },

  "slot": {
    "flow": true,
    "phrasing": true,
    "transparent": true,
    "scriptSupporting": true
  },

  "suspense": {
    "flow": true,
    "phrasing": true,
    "transparent": true,
    "slots": ["default", "fallback"]
  },

  "teleport": {
    "flow": true,
    "phrasing": true
  },

  "transition": {
    "flow": true,
    "phrasing": true,
    "transparent": true
  },

  "transition-group": {
    "flow": true,
    "phrasing": true,
    "transparent": true,
    "component": "tag"
  }
}
